<svg width="24" height="24" viewBox="0 0 24 24" fill="none" xmlns="http://www.w3.org/2000/svg">
<path d="M17 21V4C17 3.448 16.552 3 16 3H8C7.448 3 7 3.448 7 4V21" stroke="#4493FF" stroke-width="1.5" stroke-linecap="round" stroke-linejoin="round"/>
<path d="M7 9H3C2.448 9 2 9.448 2 10V21" stroke="#4493FF" stroke-width="1.5" stroke-linecap="round" stroke-linejoin="round"/>
<path d="M22 21V10C22 9.448 21.552 9 21 9H17" stroke="#4493FF" stroke-width="1.5" stroke-linecap="round" stroke-linejoin="round"/>
<path d="M9.5 17H14.5" stroke="#4493FF" stroke-width="1.5" stroke-linecap="round" stroke-linejoin="round"/>
<path d="M13.5 17V21" stroke="#4493FF" stroke-width="1.5" stroke-linecap="round" stroke-linejoin="round"/>
<path d="M10.5 21V17" stroke="#4493FF" stroke-width="1.5" stroke-linecap="round" stroke-linejoin="round"/>
<path d="M10 10.5H14" stroke="#4493FF" stroke-width="1.5" stroke-linecap="round" stroke-linejoin="round"/>
<path d="M10 13.5H14" stroke="#4493FF" stroke-width="1.5" stroke-linecap="round" stroke-linejoin="round"/>
<path d="M10 7.5H14" stroke="#4493FF" stroke-width="1.5" stroke-linecap="round" stroke-linejoin="round"/>
<path d="M5 13.5H7" stroke="#4493FF" stroke-width="1.5" stroke-linecap="round" stroke-linejoin="round"/>
<path d="M5 17H7" stroke="#4493FF" stroke-width="1.5" stroke-linecap="round" stroke-linejoin="round"/>
<path d="M17 13.5H19" stroke="#4493FF" stroke-width="1.5" stroke-linecap="round" stroke-linejoin="round"/>
<path d="M17 17H19" stroke="#4493FF" stroke-width="1.5" stroke-linecap="round" stroke-linejoin="round"/>
<path d="M23 21H1" stroke="#4493FF" stroke-width="1.5" stroke-linecap="round" stroke-linejoin="round"/>
</svg>
