<svg width="32" height="32" viewBox="0 0 32 32" fill="none" xmlns="http://www.w3.org/2000/svg">
<path d="M18.5 16.5L23.707 11.293C23.895 11.105 24 10.851 24 10.586V8C24 7.448 23.552 7 23 7H9C8.448 7 8 7.448 8 8V10.586C8 10.851 8.105 11.106 8.293 11.293L13.5 16.5" stroke="white" stroke-width="1.5" stroke-linecap="round" stroke-linejoin="round"/>
<path d="M13.5 16.5V22.749C13.5 23.562 14.264 24.159 15.053 23.962L17.553 23.337C18.109 23.198 18.5 22.698 18.5 22.124V16.5" stroke="white" stroke-width="1.5" stroke-linecap="round" stroke-linejoin="round"/>
</svg>
