
<svg width="20" height="20" viewBox="0 0 20 20" fill="none" xmlns="http://www.w3.org/2000/svg">
<path d="M16.3639 3.63604C19.8787 7.15076 19.8787 12.8492 16.3639 16.3639C12.8492 19.8787 7.15074 19.8787 3.63604 16.3639C0.12132 12.8492 0.12132 7.15074 3.63604 3.63604C7.15076 0.12132 12.8492 0.12132 16.3639 3.63604" stroke="#F2C94C" stroke-width="1.5" stroke-linecap="round" stroke-linejoin="round"/>
<path d="M9 7V11.1248L12 13" stroke="#F2C94C" stroke-width="1.5" stroke-linecap="round" stroke-linejoin="round"/>
</svg>
