<svg width="32" height="32" viewBox="0 0 32 32" fill="none" xmlns="http://www.w3.org/2000/svg">
<path d="M13.2632 22.9105L13.3822 23.2555C13.7942 24.4525 15.0982 25.0885 16.2952 24.6765V24.6765C17.4922 24.2645 18.1282 22.9605 17.7162 21.7635L17.5972 21.4185" stroke="#4493FF" stroke-width="1.5" stroke-linecap="round" stroke-linejoin="round"/>
<path d="M14.6792 9.10455L14.3802 8.23655C14.0502 7.27955 13.0072 6.77055 12.0492 7.10055V7.10055C11.0922 7.43055 10.5832 8.47355 10.9122 9.43055L11.2112 10.2985" stroke="#4493FF" stroke-width="1.5" stroke-linecap="round" stroke-linejoin="round"/>
<path fill-rule="evenodd" clip-rule="evenodd" d="M9.2482 15.6666V15.6666C8.4332 13.3006 9.6912 10.7216 12.0572 9.90656L13.7712 9.31656C16.1372 8.50156 18.7162 9.75956 19.5312 12.1256V12.1256L20.4412 14.7696C20.6142 15.2716 20.9792 15.6836 21.4552 15.9156L22.2702 16.3126C22.7472 16.5456 23.1122 16.9576 23.2842 17.4586V17.4586C23.6242 18.4456 23.0992 19.5216 22.1122 19.8616L11.9772 23.3516C10.9902 23.6916 9.9142 23.1666 9.5742 22.1796V22.1796C9.4012 21.6776 9.4352 21.1286 9.6672 20.6516L10.0642 19.8366C10.2972 19.3596 10.3302 18.8106 10.1572 18.3086L9.2482 15.6666Z" stroke="#4493FF" stroke-width="1.5" stroke-linecap="round" stroke-linejoin="round"/>
</svg>
