<svg width="12" height="18" viewBox="0 0 12 18" fill="none" xmlns="http://www.w3.org/2000/svg">
<path d="M0 1.21597V16.9448C0 17.7788 0.960882 18.2464 1.61714 17.7317L11.0544 10.3299C11.5463 9.9441 11.5676 9.20672 11.0989 8.79316L1.66162 0.466137C1.01592 -0.103597 0 0.354857 0 1.21597Z" fill="#006CFF"/>
</svg>
