<svg width="24" height="20" viewBox="0 0 24 20" fill="none" xmlns="http://www.w3.org/2000/svg">
<path d="M7.40451 18.363L7.40451 4.40088L3.47465 4.40088C2.93233 4.40088 2.49219 4.81788 2.49219 5.33169L2.49219 18.363" stroke="#4493FF" stroke-width="1.5" stroke-linecap="round" stroke-linejoin="round"/>
<path d="M22.1416 18.363L22.1416 5.33169C22.1416 4.81788 21.7014 4.40088 21.1591 4.40088L17.2292 4.40088L17.2292 18.363" stroke="#4493FF" stroke-width="1.5" stroke-linecap="round" stroke-linejoin="round"/>
<path d="M9.8606 15.5704L14.7729 15.5704" stroke="#4493FF" stroke-width="1.5" stroke-linecap="round" stroke-linejoin="round"/>
<path fill-rule="evenodd" clip-rule="evenodd" d="M10.843 15.5706L13.7904 15.5706L13.7904 18.363L10.843 18.363L10.843 15.5706Z" stroke="#4493FF" stroke-width="1.5" stroke-linecap="round" stroke-linejoin="round"/>
<path d="M10.3518 12.7781L14.2817 12.7781" stroke="#4493FF" stroke-width="1.5" stroke-linecap="round" stroke-linejoin="round"/>
<path d="M10.3518 9.98567L14.2817 9.98567" stroke="#4493FF" stroke-width="1.5" stroke-linecap="round" stroke-linejoin="round"/>
<path d="M5.4397 11.3819L7.40463 11.3819" stroke="#4493FF" stroke-width="1.5" stroke-linecap="round" stroke-linejoin="round"/>
<path d="M5.4397 14.6397L7.40463 14.6397" stroke="#4493FF" stroke-width="1.5" stroke-linecap="round" stroke-linejoin="round"/>
<path d="M5.4397 8.12409L7.40463 8.12409" stroke="#4493FF" stroke-width="1.5" stroke-linecap="round" stroke-linejoin="round"/>
<path d="M23.124 18.3629L17.2292 18.3629" stroke="#4493FF" stroke-width="1.5" stroke-linecap="round" stroke-linejoin="round"/>
<path d="M7.40431 18.3629L1.50952 18.3629" stroke="#4493FF" stroke-width="1.5" stroke-linecap="round" stroke-linejoin="round"/>
<path d="M17.2292 11.3819L19.1942 11.3819" stroke="#4493FF" stroke-width="1.5" stroke-linecap="round" stroke-linejoin="round"/>
<path d="M17.2292 14.6397L19.1942 14.6397" stroke="#4493FF" stroke-width="1.5" stroke-linecap="round" stroke-linejoin="round"/>
<path d="M17.2292 8.12409L19.1942 8.12409" stroke="#4493FF" stroke-width="1.5" stroke-linecap="round" stroke-linejoin="round"/>
<path fill-rule="evenodd" clip-rule="evenodd" d="M7.4043 18.3629L17.2289 18.3629L17.2289 2.57644C17.2289 2.04215 16.7888 1.6084 16.2465 1.6084L8.38676 1.6084C7.84444 1.6084 7.4043 2.04215 7.4043 2.57644L7.4043 18.3629Z" stroke="#4493FF" stroke-width="1.5" stroke-linecap="round" stroke-linejoin="round"/>
<path d="M10.843 5.79695L13.7904 5.79695" stroke="#4493FF" stroke-width="1.5" stroke-linecap="round" stroke-linejoin="round"/>
<path d="M12.3167 7.1933L12.3167 4.40088" stroke="#4493FF" stroke-width="1.5" stroke-linecap="round" stroke-linejoin="round"/>
</svg>
