<svg width="18" height="19" viewBox="0 0 18 19" fill="none" xmlns="http://www.w3.org/2000/svg">
<path d="M12.6666 0.833374V4.50004" stroke="#F71C5D" stroke-width="1.5" stroke-linecap="round" stroke-linejoin="round"/>
<path d="M5.33333 0.833374V4.50004" stroke="#F71C5D" stroke-width="1.5" stroke-linecap="round" stroke-linejoin="round"/>
<path d="M0.75 7.25008H17.25" stroke="#F71C5D" stroke-width="1.5" stroke-linecap="round" stroke-linejoin="round"/>
<path fill-rule="evenodd" clip-rule="evenodd" d="M15.4167 2.66675H2.58333C1.57042 2.66675 0.75 3.48716 0.75 4.50008V16.4167C0.75 17.4297 1.57042 18.2501 2.58333 18.2501H15.4167C16.4296 18.2501 17.25 17.4297 17.25 16.4167V4.50008C17.25 3.48716 16.4296 2.66675 15.4167 2.66675Z" stroke="#F71C5D" stroke-width="1.5" stroke-linecap="round" stroke-linejoin="round"/>
<path d="M4.42861 10.6683C4.30211 10.6683 4.19944 10.7709 4.20036 10.8974C4.20036 11.0239 4.30303 11.1266 4.42953 11.1266C4.55603 11.1266 4.65869 11.0239 4.65869 10.8974C4.65869 10.7709 4.55603 10.6683 4.42861 10.6683" stroke="#F71C5D" stroke-width="1.5" stroke-linecap="round" stroke-linejoin="round"/>
<path d="M9.01192 10.6683C8.88542 10.6683 8.78276 10.7709 8.78367 10.8974C8.78367 11.0239 8.88634 11.1266 9.01284 11.1266C9.13934 11.1266 9.24201 11.0239 9.24201 10.8974C9.24201 10.7709 9.13934 10.6683 9.01192 10.6683" stroke="#F71C5D" stroke-width="1.5" stroke-linecap="round" stroke-linejoin="round"/>
<path d="M13.5952 10.6683C13.4687 10.6683 13.3661 10.7709 13.367 10.8974C13.367 11.0239 13.4697 11.1266 13.5962 11.1266C13.7227 11.1266 13.8253 11.0239 13.8253 10.8974C13.8253 10.7709 13.7227 10.6683 13.5952 10.6683" stroke="#F71C5D" stroke-width="1.5" stroke-linecap="round" stroke-linejoin="round"/>
<path d="M4.42861 14.335C4.30211 14.335 4.19944 14.4377 4.20036 14.5642C4.20036 14.6907 4.30303 14.7933 4.42953 14.7933C4.55603 14.7933 4.65869 14.6907 4.65869 14.5642C4.65869 14.4377 4.55603 14.335 4.42861 14.335" stroke="#F71C5D" stroke-width="1.5" stroke-linecap="round" stroke-linejoin="round"/>
<path d="M9.01192 14.335C8.88542 14.335 8.78276 14.4377 8.78367 14.5642C8.78367 14.6907 8.88634 14.7933 9.01284 14.7933C9.13934 14.7933 9.24201 14.6907 9.24201 14.5642C9.24201 14.4377 9.13934 14.335 9.01192 14.335" stroke="#F71C5D" stroke-width="1.5" stroke-linecap="round" stroke-linejoin="round"/>
</svg>
