<svg width="17" height="20" viewBox="0 0 17 20" fill="none" xmlns="http://www.w3.org/2000/svg">
<path fill-rule="evenodd" clip-rule="evenodd" d="M6.64623 2.25538C6.82993 1.89518 7.2113 1.65918 7.637 1.65918H9.05387C9.48028 1.65918 9.86084 1.895 10.0446 2.25538L10.4591 3.06811C10.5872 3.31926 10.8453 3.47736 11.1272 3.47736H12.0545C12.1646 3.47736 12.2299 3.56034 12.2318 3.63327L12.2317 3.63643L12.2318 3.64523V4.54554C12.2318 4.61922 12.1662 4.70463 12.0545 4.70463H4.63634C4.52463 4.70463 4.45907 4.61922 4.45907 4.54554V3.63645C4.45907 3.56278 4.52463 3.47736 4.63634 3.47736H5.56361C5.84554 3.47736 6.10365 3.31926 6.23174 3.06811L6.64623 2.25538ZM13.7318 4.38643V4.54554C13.7318 5.47551 12.9665 6.20463 12.0545 6.20463H4.63634C3.72434 6.20463 2.95907 5.47551 2.95907 4.54554V4.38643H1.85447C1.74276 4.38643 1.6772 4.47185 1.6772 4.54552V18.1819C1.6772 18.2556 1.74276 18.341 1.85447 18.341H14.8363C14.948 18.341 15.0136 18.2556 15.0136 18.1819V4.54552C15.0136 4.47185 14.948 4.38643 14.8363 4.38643H13.7318ZM3.13937 2.88643C3.41843 2.34289 3.99061 1.97736 4.63634 1.97736H5.10421L5.30998 1.57389C5.75497 0.701358 6.6588 0.15918 7.637 0.15918H9.05387C10.0332 0.15918 10.936 0.701544 11.3809 1.57389L11.5867 1.97736H12.0545C12.7003 1.97736 13.2724 2.34289 13.5515 2.88643H14.8363C15.7483 2.88643 16.5136 3.61556 16.5136 4.54552V18.1819C16.5136 19.1119 15.7483 19.841 14.8363 19.841H1.85447C0.942476 19.841 0.1772 19.1119 0.1772 18.1819V4.54552C0.1772 3.61556 0.942476 2.88643 1.85447 2.88643H3.13937ZM4.63627 12.8865C4.22205 12.8865 3.88627 13.2223 3.88627 13.6365C3.88627 14.0507 4.22205 14.3865 4.63627 14.3865H12.0544C12.4687 14.3865 12.8044 14.0507 12.8044 13.6365C12.8044 13.2223 12.4687 12.8865 12.0544 12.8865H4.63627ZM5.74094 16.3637C5.74094 15.9495 6.07672 15.6137 6.49094 15.6137H10.2C10.6142 15.6137 10.95 15.9495 10.95 16.3637C10.95 16.7779 10.6142 17.1137 10.2 17.1137H6.49094C6.07672 17.1137 5.74094 16.7779 5.74094 16.3637ZM6.20467 9.54556C6.20467 9.13134 6.54046 8.79556 6.95467 8.79556H7.59551V8.18193C7.59551 7.76771 7.93129 7.43193 8.34551 7.43193C8.75972 7.43193 9.09551 7.76771 9.09551 8.18193V8.79556H9.73649C10.1507 8.79556 10.4865 9.13134 10.4865 9.54556C10.4865 9.95977 10.1507 10.2956 9.73649 10.2956H9.09551V10.9092C9.09551 11.3234 8.75972 11.6592 8.34551 11.6592C7.93129 11.6592 7.59551 11.3234 7.59551 10.9092V10.2956H6.95467C6.54046 10.2956 6.20467 9.95977 6.20467 9.54556Z" fill="#4493FF"/>
</svg>
