<svg width="24" height="24" viewBox="0 0 24 24" fill="none" xmlns="http://www.w3.org/2000/svg">
<path fill-rule="evenodd" clip-rule="evenodd" d="M19.0029 5.44714H15.0303C14.6991 5.44732 14.3893 5.28363 14.2029 5.00995L13.1315 3.4333C12.9442 3.15845 12.6327 2.99461 12.3001 2.9961H8.99874C7.89371 2.9961 6.99791 3.89192 6.99791 4.99695V14.0007C6.99791 15.1057 7.89371 16.0015 8.99874 16.0015H19.0029C20.1079 16.0015 21.0037 15.1057 21.0037 14.0007V7.44797C21.0037 6.34294 20.1079 5.44714 19.0029 5.44714Z" stroke="#006CFF" stroke-width="1.5" stroke-linecap="round" stroke-linejoin="round"/>
<path d="M6.99791 6.99805H4.99708C3.89205 6.99805 2.99625 7.89385 2.99625 8.99888V19.003C2.99625 20.1081 3.89205 21.0039 4.99708 21.0039H16.752C17.857 21.0039 18.7528 20.1081 18.7528 19.003V16.0018" stroke="#006CFF" stroke-width="1.5" stroke-linecap="round" stroke-linejoin="round"/>
</svg>
